MAS2908 - Practical 01 (Solutions)
…
Using the mpg dataset:

Filter to show only cars from the year 1999.

Arrange the result by highway MPG in descending order.

Select only the manufacturer, model, and hwy columns.

mpg |>
  filter(year == 1999) |>
  arrange(desc(hwy)) |>
  select(manufacturer, model, hwy)

## # A tibble: 117 × 3
##    manufacturer model        hwy
##    <chr>        <chr>      <int>
##  1 volkswagen   jetta         44
##  2 volkswagen   new beetle    44
##  3 volkswagen   new beetle    41
##  4 toyota       corolla       35
##  5 honda        civic         33
##  6 toyota       corolla       33
##  7 honda        civic         32
##  8 honda        civic         32
##  9 honda        civic         32
## 10 toyota       corolla       30
## # ℹ 107 more rows
…
